<?xml version="1.0" encoding="UTF-8"?>
<svg width="22px" height="16px" viewBox="0 0 22 16" version="1.1" xmlns="http://www.w3.org/2000/svg" xmlns:xlink="http://www.w3.org/1999/xlink">
    <!-- Generator: Sketch 43 (38999) - http://www.bohemiancoding.com/sketch -->
    <title>youtube</title>
    <desc>Created with Sketch.</desc>
    <defs></defs>
    <g id="Page-1" stroke="none" stroke-width="1" fill="none" fill-rule="evenodd">
        <g id="Social" transform="translate(-93.000000, -3.000000)" fill-rule="nonzero" fill="#FF0000">
            <g id="youtube" transform="translate(93.000000, 3.000000)">
                <path d="M17.3931905,0.0187142857 L4.5592381,0.0187142857 C2.0412381,0.0187142857 0,2.05995238 0,4.57795238 L0,10.9935714 C0,13.5115714 2.0412381,15.5528095 4.5592381,15.5528095 L17.3931905,15.5528095 C19.9111905,15.5528095 21.9524286,13.5115714 21.9524286,10.9935714 L21.9524286,4.57795238 C21.9524286,2.05995238 19.9111905,0.0187142857 17.3931905,0.0187142857 Z M14.3098095,8.09790476 L8.30695238,10.9609048 C8.147,11.0371905 7.9622381,10.9205714 7.9622381,10.743381 L7.9622381,4.83842857 C7.9622381,4.65871429 8.15185714,4.5422381 8.31214286,4.62347619 L14.315,7.66542857 C14.4934762,7.75585714 14.490381,8.01180952 14.3098095,8.09790476 Z" id="Shape"></path>
            </g>
        </g>
    </g>
</svg>