<?xml version="1.0" encoding="utf-8"?>
<!-- Generator: Adobe Illustrator 21.0.2, SVG Export Plug-In . SVG Version: 6.00 Build 0)  -->
<svg version="1.1" id="wave.svg" xmlns="http://www.w3.org/2000/svg" xmlns:xlink="http://www.w3.org/1999/xlink" x="0px" y="0px"
	 viewBox="0 0 1980 496" style="enable-background:new 0 0 1980 496;" xml:space="preserve">
<style type="text/css">
	.st0{fill:url(#wave_bg_1_);}
</style>
<linearGradient id="wave_bg_1_" gradientUnits="userSpaceOnUse" x1="990" y1="496" x2="990" y2="-9.094947e-13">
	<stop  offset="0" style="stop-color:#FFFFFF"/>
	<stop  offset="0.2212" style="stop-color:#FFFFFF"/>
	<stop  offset="1" style="stop-color:#EBF5FA"/>
</linearGradient>
<path id="wave_bg" class="st0" d="M0,338c0,0,79.1-189,350.1-189s275,131,590.7,131S1440.9,0,1980,0v496H0.1L0,338z"/>
</svg>
